[gd_scene load_steps=6 format=2]

[ext_resource path="res://Ramona/MovementKinematic.gd" type="Script" id=1]
[ext_resource path="res://Ramona/Ramona.tscn" type="PackedScene" id=2]
[ext_resource path="res://Ramona/Camera.gd" type="Script" id=3]
[ext_resource path="res://Sounds/HIT.wav" type="AudioStream" id=4]

[sub_resource type="CapsuleShape" id=1]

radius = 40.0
height = 80.0

[node name="PlayerController" type="KinematicBody" index="0"]
input_ray_pickable = true
input_capture_on_drag = false
collision_layer = 1
collision_mask = 1
axis_lock_linear_x = false
axis_lock_linear_y = false
axis_lock_linear_z = false
axis_lock_angular_x = false
axis_lock_angular_y = false
axis_lock_angular_z = false
collision/safe_margin = 0.001
script = ExtResource( 1 )
_sections_unfolded = [ "Transform" ]

[node name="CollisionShape" type="CollisionShape" parent="." index="0"]
transform = Transform( 0.01, 0, 0, 0, -4.37114e-010, -0.01, 0, 0.01, -4.37114e-010, 0, 0.8, 0 )
visible = false
shape = SubResource( 1 )
disabled = false
_sections_unfolded = [ "Transform" ]

[node name="Player" parent="." index="1" instance=ExtResource( 2 )]
_sections_unfolded = [ "Transform" ]

[node name="target" type="Spatial" parent="." index="2"]
transform = Transform( 1, 0, 0, 0, 1, 0, 0, 0, 1, 0, 1.35251, 0 )

[node name="Camera" type="Camera" parent="target" index="0"]
transform = Transform( 1, 0, 0, 0, 0.971089, 0.238717, 0, -0.238717, 0.971089, 0, 0.494434, 1.91098 )
keep_aspect = 1
cull_mask = 1048575
environment = null
h_offset = 0.0
v_offset = 0.0
doppler_tracking = 0
projection = 0
current = false
fov = 70.0
size = 1.0
near = 0.05
far = 100.0
script = ExtResource( 3 )

[node name="AudioStreamPlayer" type="AudioStreamPlayer" parent="." index="3"]
stream = ExtResource( 4 )
volume_db = 0.0
pitch_scale = 1.0
autoplay = false
stream_paused = false
mix_target = 0
bus = "Master"

[node name="HealthBar" type="ProgressBar" parent="." index="4"]
anchor_left = 0.0
anchor_top = 0.0
anchor_right = 0.0
anchor_bottom = 0.0
margin_left = 42.0
margin_top = 28.0
margin_right = 473.0
margin_bottom = 60.0
rect_pivot_offset = Vector2( 0, 0 )
rect_clip_content = false
mouse_filter = 0
mouse_default_cursor_shape = 0
size_flags_horizontal = 1
size_flags_vertical = 0
min_value = 0.0
max_value = 100.0
step = 1.0
page = 0.0
value = 0.0
exp_edit = false
rounded = false
allow_greater = false
allow_lesser = false
percent_visible = true
_sections_unfolded = [ "Percent" ]

